Seed,ElevatorCount,StepCount,PassengerCount,SatisfiedPassengerCount,AverageCallTime,AverageInElevatorTime,AverageSatisfactionTime
677741240,2,7,5,1,0.8,1,5
611911301,5,16,4,1,2,1,7
516687479,4,15,3,1,4.66667,3,14
1039653884,1,9,3,1,1,2,2
807009856,3,21,3,1,5.66667,6,20
115325623,1,14,3,1,0.666667,5,5
1224653905,5,7,3,1,1.33333,2,6
2083069270,4,16,2,2,4.5,6.5,11
1106860981,4,3,1,1,0,2,2
922406371,4,14,4,1,4.25,1,6
